<?xml version="1.0" encoding="utf-8"?>
<!-- Generator: Adobe Illustrator 15.1.0, SVG Export Plug-In . SVG Version: 6.00 Build 0)  -->
<!DOCTYPE svg PUBLIC "-//W3C//DTD SVG 1.1//EN" "http://www.w3.org/Graphics/SVG/1.1/DTD/svg11.dtd">
<svg version="1.1" id="Layer_1" xmlns="http://www.w3.org/2000/svg" xmlns:xlink="http://www.w3.org/1999/xlink" x="0px" y="0px"
	 width="152.766px" height="231.875px" viewBox="0 0 152.766 231.875" enable-background="new 0 0 152.766 231.875"
	 xml:space="preserve">
<path fill="none" stroke="#FFFFFF" stroke-width="3" stroke-miterlimit="10" d="M150.972,226.791c0,1.568-1.258,2.84-2.809,2.84
	H4.385c-1.552,0-2.81-1.271-2.81-2.84V4.304c0-1.569,1.258-2.842,2.81-2.842h143.778c1.551,0,2.809,1.272,2.809,2.842V226.791z
	 M1.34,80.518h149.396 M77.443,80.754v149.115 M39.51,80.754v149.115 M114.441,81.229v149.113"/>
<path fill="#594F87" d="M75.379,47.947c-1.537,1.537-1.554,4.018-0.035,5.535c1.519,1.52,3.999,1.504,5.536-0.035
	c1.539-1.537,1.556-4.018,0.037-5.537C79.397,46.391,76.917,46.408,75.379,47.947"/>
<path fill="none" stroke="#594F87" stroke-width="2.2" stroke-linecap="round" stroke-miterlimit="10" d="M70.52,43.094
	c4.257-4.258,11.116-4.303,15.318-0.1 M65.299,37.871c7.179-7.178,18.741-7.25,25.827-0.164 M59.87,33.064
	c10.214-10.215,26.666-10.318,36.747-0.238"/>
<path fill="none" stroke="#594F87" stroke-width="1.933" stroke-miterlimit="10" d="M35.118,80.699l-33.474,33.91 M23.688,80.463
	L1.646,102.795 M11.792,80.699L1.646,90.979 M39.083,88.801L1.646,126.73 M39.083,100.719L1.646,138.646 M39.083,112.635
	l-37.438,37.93 M39.083,124.553L1.646,162.48 M39.083,136.469l-37.438,37.93 M39.083,148.385l-37.438,37.93 M39.083,160.305
	L1.646,198.23 M39.083,172.221L1.646,210.148 M39.083,184.139L1.646,222.064 M39.083,196.256L6.429,229.342 M39.083,207.973
	l-20.7,20.971 M39.083,219.889l-9.329,9.453"/>
<path fill="none" stroke="#595959" stroke-width="3" stroke-miterlimit="10" d="M150.971,226.791c0,1.568-1.258,2.842-2.809,2.842
	H4.384c-1.552,0-2.81-1.273-2.81-2.842V4.304c0-1.569,1.258-2.841,2.81-2.841h143.778c1.551,0,2.809,1.271,2.809,2.841V226.791
	L150.971,226.791z M1.339,80.518h149.396 M77.443,80.756v149.113 M39.509,80.756v149.113 M114.441,81.229v149.113"/>
</svg>
