<?xml version="1.0" encoding="utf-8"?>
<!-- Generator: Adobe Illustrator 15.1.0, SVG Export Plug-In . SVG Version: 6.00 Build 0)  -->
<!DOCTYPE svg PUBLIC "-//W3C//DTD SVG 1.1//EN" "http://www.w3.org/Graphics/SVG/1.1/DTD/svg11.dtd">
<svg version="1.1" id="Layer_1" xmlns="http://www.w3.org/2000/svg" xmlns:xlink="http://www.w3.org/1999/xlink" x="0px" y="0px"
	 width="154.266px" height="231.875px" viewBox="0 0 154.266 231.875" enable-background="new 0 0 154.266 231.875"
	 xml:space="preserve">
<path fill="none" stroke="#595959" stroke-width="3" stroke-miterlimit="10" d="M152.502,227.252c0,1.572-1.271,2.848-2.84,2.848
	H4.354c-1.565,0-2.84-1.273-2.84-2.848V4.308c0-1.571,1.272-2.845,2.84-2.845h145.311c1.566,0,2.84,1.273,2.84,2.845
	L152.502,227.252L152.502,227.252z M1.276,80.678h150.989 M78.191,80.916v149.418 M39.853,80.916v149.418 M115.584,81.391v149.417"
	/>
<path fill="#594F87" d="M68.228,53.646c-0.889,0.053-1.479-0.07-1.917-0.406c-0.435-0.334-0.914-1.969-0.914-1.969
	c-0.02-0.033,0.779-0.684,2.497-0.119c-1.453-2.197-5.213-0.596-6.713-1.98c-1.585-1.467,0.109-4.938-1.812-6.619
	c0.321,1.863-0.193,2.604-0.229,2.582c0,0-1.708-0.592-2.17-1.238c-0.459-0.646-0.903-2.424,1.084-4.412l5.851-5.893
	c0.042,0.064,0.095,0.127,0.149,0.184l12.661,12.662c0,0,0.001,0,0.002,0.002l-6.19,6.06c-0.016,0.014-0.027,0.029-0.043,0.043
	C69.887,53.227,69.128,53.6,68.228,53.646 M88.281,16.915c0.312,0.062,0.556,0.109,0.765,0.13c0.229,0.022,0.455-0.056,0.62-0.216
	l2.316-2.246l3.642,3.642l-1.995,1.807c-0.194,0.176-0.287,0.439-0.246,0.699c0.013,0.086,0.031,0.188,0.052,0.307
	c0.297,1.678,1.193,6.775-2.754,11.725l-2.002,1.961c-0.034-0.047-0.071-0.094-0.114-0.137l-12.661-12.66
	c-0.069-0.072-0.149-0.133-0.233-0.182l1.662-1.674C82.153,15.71,86.291,16.524,88.281,16.915 M91.802,33.842
	c0.023-0.021,0.043-0.043,0.063-0.068c4.32-5.385,3.472-10.896,3.127-12.875l1.732-1.572l0.627,0.629
	c0.343,0.342,0.898,0.342,1.241-0.002c0.33-0.33,0.339-0.855,0.03-1.201l2.334-2.334c0.54-0.539,0.54-1.414,0-1.953l-5.005-5.004
	c-0.539-0.54-1.414-0.54-1.952,0l-2.334,2.332c-0.347-0.308-0.872-0.299-1.202,0.031c-0.343,0.343-0.344,0.898-0.002,1.241
	l0.415,0.415l-2.021,1.957c-0.085-0.016-0.177-0.033-0.273-0.053c-2.067-0.406-6.907-1.358-12.317,3.543
	c-0.008,0.01-0.02,0.021-0.028,0.029L56.949,38.383c-2.749,2.748-1.845,5.83-1.034,6.684c1.122,1.186,2.943,1.631,3.021,1.666
	c0,0-0.136,2.73,0.924,3.711c1.312,1.215,3.771,1.059,3.771,1.059c0.035,0.066,0.84,2.186,1.515,2.795
	c0.5,0.451,1.708,0.957,3.055,0.914c1.354-0.047,2.543-0.604,3.438-1.617L91.802,33.842z"/>
<path fill="none" stroke="#594F87" stroke-width="1.933" stroke-linecap="round" stroke-miterlimit="10" d="M77.919,58.141v5.473
	c0,3.912-2.75,6.021-7.311,6.021H29.104c-5.188,0-6.84,3.441-6.84,7.117V86.76"/>
<polygon fill="#594F87" points="18.56,85.969 22.108,92.111 25.655,85.969 "/>
<path fill="none" stroke="#594F87" stroke-width="1.933" stroke-linecap="round" stroke-miterlimit="10" d="M78.231,58.141v5.473
	c0,3.912,2.749,6.021,7.311,6.021h41.505c5.188,0,6.841,3.441,6.841,7.117V86.76"/>
<polygon fill="#594F87" points="130.494,85.969 134.043,92.111 137.589,85.969 "/>
<path fill="none" stroke="#594F87" stroke-width="1.933" stroke-linecap="round" stroke-miterlimit="10" d="M78.231,58.141v5.473
	c0,3.912,2.722,6.021,7.229,6.021h4.665c5.132,0,6.766,3.441,6.766,7.117V86.76"/>
<polygon fill="#594F87" points="93.499,85.969 97.047,92.111 100.594,85.969 "/>
<path fill="none" stroke="#594F87" stroke-width="1.933" stroke-linecap="round" stroke-miterlimit="10" d="M77.919,58.141v5.473
	c0,3.912-2.721,6.021-7.23,6.021h-4.665c-5.131,0-6.765,3.441-6.765,7.117V86.76"/>
<polygon fill="#594F87" points="55.556,85.969 59.104,92.111 62.649,85.969 "/>
<g>
	<g>
		<g>
			<defs>
				<rect id="SVGID_1_" x="51.062" y="151.354" width="17.551" height="67.369"/>
			</defs>
			<clipPath id="SVGID_2_">
				<use xlink:href="#SVGID_1_"  overflow="visible"/>
			</clipPath>
			<g clip-path="url(#SVGID_2_)">
				
					<text transform="matrix(-6.205667e-17 -1.0135 1 -6.123234e-17 27.1672 184.1855)" fill="#CCCCCC" font-family="'Courier'" font-size="21.2669">G</text>
			</g>
		</g>
	</g>
</g>
<g>
	<g>
		<g>
			<defs>
				<rect id="SVGID_3_" x="89.263" y="151.137" width="17.509" height="67.225"/>
			</defs>
			<clipPath id="SVGID_4_">
				<use xlink:href="#SVGID_3_"  overflow="visible"/>
			</clipPath>
			<g clip-path="url(#SVGID_4_)">
				
					<text transform="matrix(-6.123234e-17 -1 1 -6.123234e-17 59.5793 184.7617)" fill="#CCCCCC" font-family="'Courier'" font-size="21.7466">P</text>
			</g>
		</g>
	</g>
</g>
<g>
	<g>
		<g>
			<defs>
				<rect id="SVGID_5_" x="126.18" y="124.85" width="16.718" height="93.85"/>
			</defs>
			<clipPath id="SVGID_6_">
				<use xlink:href="#SVGID_5_"  overflow="visible"/>
			</clipPath>
			<g clip-path="url(#SVGID_6_)">
				
					<text transform="matrix(-6.152323e-17 -1.0048 1 -6.123234e-17 89.8245 184.123)" fill="#CCCCCC" font-family="'Courier'" font-size="20.229">O</text>
			</g>
		</g>
	</g>
</g>
<g>
	<path fill="#594F87" d="M28.664,218.361h-16.42v-4.104c0-2.737,1.562-4.104,4.689-4.104c1.338,0,2.356,0.353,3.058,1.06
		c0.698,0.705,1.05,1.722,1.05,3.047v1.759h7.623V218.361z M19.281,216.016v-0.586c0-0.531-0.028-0.967-0.092-1.307
		c-0.061-0.338-0.175-0.637-0.343-0.896c-0.168-0.259-0.408-0.447-0.72-0.559c-0.312-0.113-0.708-0.17-1.191-0.17
		c-0.586,0-1.062,0.043-1.425,0.127c-0.363,0.086-0.661,0.244-0.893,0.473c-0.232,0.229-0.395,0.525-0.481,0.889
		c-0.088,0.365-0.133,0.846-0.133,1.443v0.586H19.281z"/>
	<path fill="#594F87" d="M28.664,208.824h-16.42v-2.346h14.659v-4.105h1.761V208.824z"/>
	<path fill="#594F87" d="M28.664,202.309l-16.42-3.518v-2.346l16.42-3.521v2.348l-4.104,0.879v2.934l4.104,0.879V202.309z
		 M22.8,198.791v-2.346l-7.037,1.172L22.8,198.791z"/>
	<path fill="#594F87" d="M28.829,187.328c0,1.479-0.436,2.605-1.303,3.385c-0.866,0.78-2.053,1.215-3.556,1.307l-0.586-2.346
		c2.346-0.117,3.519-0.898,3.519-2.346c0-1.174-0.587-1.76-1.76-1.76c-0.348,0-0.67,0.047-0.967,0.143
		c-0.296,0.094-0.567,0.238-0.815,0.436c-0.245,0.195-0.443,0.371-0.596,0.531c-0.147,0.158-0.334,0.375-0.554,0.65l-2.346,2.932
		c-0.424,0.537-0.958,0.967-1.608,1.287s-1.392,0.48-2.222,0.48c-1.21,0-2.173-0.375-2.889-1.127c-0.715-0.75-1.07-1.746-1.07-2.986
		c0-1.332,0.324-2.391,0.977-3.176c0.65-0.783,1.571-1.268,2.763-1.451c0.128-0.02,0.307-0.039,0.531-0.064l0.586,2.346
		c-0.104,0.008-0.259,0.021-0.467,0.047c-0.745,0.104-1.343,0.338-1.792,0.699c-0.448,0.363-0.673,0.896-0.673,1.602
		c0,0.562,0.157,0.996,0.472,1.301c0.315,0.307,0.753,0.459,1.314,0.459c0.923,0,1.693-0.391,2.316-1.174l2.348-2.934
		c1.265-1.562,2.774-2.346,4.534-2.346c1.203,0,2.146,0.371,2.821,1.113C28.49,185.078,28.829,186.076,28.829,187.328z"/>
	<path fill="#594F87" d="M28.664,179.76h-14.33v2.932h-2.09v-8.211h2.09v2.936h14.33V179.76z"/>
	<path fill="#594F87" d="M28.664,173.207h-16.42v-2.346h16.42V173.207z"/>
	<path fill="#594F87" d="M28.829,164.137c0,0.689-0.1,1.299-0.293,1.824c-0.195,0.525-0.468,0.955-0.812,1.291
		s-0.773,0.609-1.292,0.82c-0.516,0.211-1.065,0.359-1.653,0.443c-0.587,0.086-1.249,0.129-1.986,0.129h-4.685
		c-0.737,0-1.399-0.043-1.986-0.129c-0.586-0.084-1.14-0.232-1.653-0.443c-0.517-0.211-0.945-0.484-1.288-0.82
		c-0.342-0.336-0.61-0.766-0.806-1.291c-0.196-0.525-0.294-1.135-0.294-1.824c0-0.764,0.111-1.424,0.34-1.979
		c0.226-0.557,0.559-1,0.998-1.334c0.438-0.332,0.95-0.584,1.528-0.752c0.581-0.168,1.261-0.266,2.034-0.297
		c0.116-0.006,0.297-0.01,0.541-0.01v2.346H17c-0.323,0.006-0.603,0.02-0.829,0.037c-0.229,0.018-0.466,0.053-0.71,0.102
		c-0.245,0.049-0.447,0.119-0.609,0.215c-0.162,0.094-0.312,0.213-0.449,0.357c-0.138,0.143-0.236,0.324-0.303,0.545
		c-0.062,0.219-0.096,0.477-0.096,0.77c0,0.379,0.061,0.703,0.184,0.979c0.122,0.271,0.279,0.48,0.474,0.637
		c0.19,0.15,0.448,0.271,0.772,0.354c0.323,0.082,0.642,0.137,0.948,0.16c0.309,0.023,0.688,0.035,1.141,0.035h5.864
		c0.391,0,0.745-0.016,1.062-0.051c0.315-0.033,0.634-0.1,0.946-0.197c0.314-0.098,0.579-0.223,0.793-0.379
		c0.214-0.154,0.388-0.361,0.52-0.623c0.131-0.26,0.195-0.562,0.195-0.91c0-0.35-0.065-0.648-0.2-0.898
		c-0.136-0.25-0.308-0.447-0.515-0.59c-0.208-0.146-0.474-0.258-0.797-0.34c-0.324-0.082-0.639-0.139-0.942-0.16
		c-0.308-0.025-0.659-0.037-1.062-0.037H22.8v-2.346h0.587c0.849,0,1.594,0.074,2.235,0.225s1.208,0.391,1.698,0.725
		c0.491,0.332,0.865,0.785,1.122,1.355C28.701,162.643,28.829,163.33,28.829,164.137z"/>
</g>
<g>
	<path fill="#594F87" d="M67.321,218.271H50.884v-4.109c0-2.74,1.566-4.109,4.696-4.109c1.34,0,2.357,0.354,3.06,1.062
		c0.7,0.703,1.05,1.723,1.05,3.049v1.762h7.632L67.321,218.271L67.321,218.271z M57.929,215.924v-0.588
		c0-0.531-0.03-0.967-0.092-1.307c-0.062-0.34-0.176-0.639-0.344-0.898c-0.168-0.259-0.408-0.447-0.723-0.561
		c-0.312-0.113-0.709-0.17-1.19-0.17c-0.587,0-1.062,0.043-1.428,0.129c-0.362,0.086-0.66,0.244-0.895,0.473
		s-0.393,0.525-0.481,0.891c-0.089,0.363-0.133,0.844-0.133,1.443v0.588H57.929z"/>
	<path fill="#594F87" d="M67.321,210.311l-16.438-3.521v-2.35l16.438-3.521v2.349l-4.107,0.881v2.937l4.107,0.879V210.311z
		 M61.451,206.787v-2.348l-7.047,1.174L61.451,206.787z"/>
	<path fill="#594F87" d="M67.321,199.596H50.884v-4.105c0-2.74,1.566-4.109,4.696-4.109c1.34,0,2.357,0.354,3.06,1.061
		c0.7,0.707,1.05,1.723,1.05,3.051v1.76h7.632L67.321,199.596L67.321,199.596z M57.929,197.248v-0.586
		c0-0.533-0.03-0.969-0.092-1.307c-0.062-0.34-0.176-0.643-0.344-0.9s-0.408-0.445-0.723-0.559c-0.312-0.113-0.709-0.17-1.19-0.17
		c-0.587,0-1.062,0.043-1.428,0.129c-0.362,0.086-0.66,0.242-0.895,0.473c-0.232,0.229-0.393,0.525-0.481,0.889
		c-0.088,0.364-0.133,0.846-0.133,1.445v0.586H57.929L57.929,197.248z"/>
	<path fill="#594F87" d="M67.321,190.049H50.884v-6.457h1.762v4.109h5.283v-2.936h1.761v2.936h5.87v-4.109h1.762L67.321,190.049
		L67.321,190.049z"/>
	<path fill="#594F87" d="M67.321,182.15H50.884v-2.936c0-1.75,0.34-3.066,1.019-3.955c0.681-0.885,1.809-1.326,3.387-1.326
		c0.979,0,1.798,0.174,2.458,0.521c0.658,0.351,1.111,0.858,1.355,1.53l8.219-2.642v2.33l-7.632,2.365v1.762h7.632L67.321,182.15
		L67.321,182.15z M57.929,179.803v-0.586c0-0.979-0.207-1.713-0.619-2.203c-0.413-0.488-1.087-0.73-2.021-0.73
		c-0.937,0-1.61,0.242-2.022,0.73c-0.413,0.49-0.619,1.227-0.619,2.203v0.586H57.929z"/>
</g>
<g>
	<path fill="#594F87" d="M105.273,213.869c0,0.752-0.105,1.404-0.319,1.957c-0.216,0.555-0.504,1.006-0.871,1.354
		c-0.367,0.352-0.835,0.627-1.403,0.834c-0.569,0.209-1.168,0.354-1.798,0.432c-0.63,0.08-1.354,0.119-2.174,0.119h-4.164
		c-4.023,0-6.035-1.596-6.035-4.787c0-0.766,0.114-1.428,0.344-1.988c0.23-0.562,0.563-1.021,1.004-1.367
		c0.441-0.347,0.956-0.609,1.546-0.789c0.592-0.178,1.273-0.279,2.052-0.312c0.108-0.006,0.276-0.008,0.505-0.008v2.349H93.46
		c-0.386,0.006-0.718,0.024-0.996,0.062c-0.277,0.032-0.552,0.094-0.82,0.182c-0.27,0.091-0.488,0.212-0.656,0.363
		s-0.303,0.354-0.401,0.608c-0.102,0.254-0.151,0.556-0.151,0.904c0,0.477,0.087,0.879,0.262,1.204
		c0.176,0.328,0.43,0.578,0.763,0.753c0.333,0.176,0.7,0.299,1.101,0.372c0.4,0.072,0.867,0.109,1.399,0.109h5.283
		c0.391,0,0.742-0.013,1.06-0.037c0.313-0.022,0.636-0.063,0.963-0.123s0.609-0.146,0.848-0.259
		c0.239-0.112,0.454-0.254,0.647-0.422c0.192-0.168,0.339-0.379,0.44-0.633c0.101-0.254,0.148-0.545,0.148-0.875
		c0-0.394-0.076-0.729-0.229-1.021c-0.153-0.287-0.353-0.515-0.594-0.683c-0.239-0.168-0.549-0.303-0.922-0.399
		c-0.373-0.098-0.743-0.162-1.108-0.196c-0.366-0.033-0.785-0.05-1.258-0.05h-0.587v2.349H96.91v-4.697h8.198v1.763l-1.762,0.588
		C104.631,211.979,105.273,212.762,105.273,213.869z"/>
	<path fill="#594F87" d="M105.108,207.273H88.672v-2.35h14.675v-4.107h1.762L105.108,207.273L105.108,207.273z"/>
	<path fill="#594F87" d="M105.108,200.752l-16.437-3.521v-2.348l16.437-3.523v2.352L101,194.59v2.938l4.107,0.881V200.752z
		 M99.238,197.23v-2.35l-7.045,1.176L99.238,197.23z"/>
	<path fill="#594F87" d="M105.273,185.756c0,1.48-0.435,2.609-1.303,3.389c-0.868,0.78-2.055,1.215-3.559,1.309l-0.587-2.35
		c2.348-0.113,3.521-0.896,3.521-2.348c0-1.174-0.587-1.762-1.761-1.762c-0.351,0-0.671,0.049-0.968,0.143
		c-0.298,0.096-0.568,0.24-0.816,0.438c-0.247,0.193-0.446,0.371-0.596,0.531c-0.15,0.158-0.335,0.375-0.557,0.65l-2.349,2.936
		c-0.422,0.537-0.958,0.969-1.609,1.289c-0.649,0.32-1.393,0.48-2.225,0.48c-1.211,0-2.174-0.375-2.89-1.129
		c-0.717-0.752-1.072-1.748-1.072-2.99c0-1.332,0.325-2.391,0.977-3.178c0.651-0.785,1.573-1.27,2.768-1.453
		c0.128-0.018,0.306-0.039,0.529-0.064l0.59,2.35c-0.104,0.006-0.263,0.021-0.47,0.047c-0.746,0.104-1.344,0.338-1.794,0.701
		c-0.449,0.361-0.674,0.896-0.674,1.6c0,0.564,0.157,0.998,0.473,1.305c0.314,0.307,0.753,0.459,1.316,0.459
		c0.923,0,1.696-0.393,2.32-1.174l2.348-2.938c1.266-1.562,2.779-2.35,4.541-2.35c1.204,0,2.146,0.371,2.824,1.115
		C104.934,183.504,105.273,184.502,105.273,185.756z"/>
	<path fill="#594F87" d="M105.273,175.648c0,1.479-0.435,2.607-1.303,3.389c-0.868,0.779-2.055,1.215-3.559,1.307l-0.587-2.348
		c2.348-0.117,3.521-0.898,3.521-2.348c0-1.174-0.587-1.764-1.761-1.764c-0.351,0-0.671,0.049-0.968,0.145
		c-0.298,0.094-0.568,0.24-0.816,0.436c-0.247,0.195-0.446,0.373-0.596,0.531c-0.15,0.16-0.335,0.377-0.557,0.652l-2.349,2.936
		c-0.422,0.537-0.958,0.967-1.609,1.287c-0.649,0.322-1.393,0.482-2.225,0.482c-1.211,0-2.174-0.377-2.89-1.129
		c-0.717-0.752-1.072-1.748-1.072-2.99c0-1.332,0.325-2.395,0.977-3.178c0.652-0.785,1.573-1.271,2.768-1.453
		c0.128-0.021,0.306-0.041,0.529-0.064l0.59,2.348c-0.104,0.006-0.263,0.021-0.47,0.047c-0.746,0.104-1.344,0.338-1.794,0.701
		c-0.449,0.363-0.674,0.896-0.674,1.6c0,0.562,0.157,0.998,0.473,1.305c0.314,0.309,0.753,0.459,1.316,0.459
		c0.923,0,1.696-0.393,2.32-1.174l2.348-2.938c1.266-1.562,2.779-2.348,4.541-2.348c1.204,0,2.146,0.371,2.824,1.113
		C104.934,173.396,105.273,174.395,105.273,175.648z"/>
</g>
<g>
	<path fill="#594F87" d="M142.27,214.033c0,0.826-0.125,1.533-0.376,2.123c-0.25,0.592-0.617,1.061-1.101,1.408
		c-0.482,0.35-1.05,0.604-1.701,0.762c-0.651,0.16-1.408,0.238-2.271,0.238h-5.962c-0.859,0-1.612-0.078-2.256-0.238
		c-0.643-0.158-1.2-0.412-1.674-0.762c-0.475-0.35-0.83-0.816-1.068-1.408c-0.237-0.59-0.356-1.297-0.356-2.123
		c0-1.602,0.459-2.758,1.376-3.467s2.244-1.064,3.979-1.064h5.962c0.853,0,1.603,0.082,2.254,0.244
		c0.649,0.162,1.22,0.418,1.704,0.766c0.486,0.348,0.856,0.818,1.11,1.408S142.27,213.215,142.27,214.033z M139.601,215.744
		c0.495-0.314,0.743-0.885,0.743-1.711c0-0.824-0.248-1.395-0.743-1.711c-0.495-0.314-1.226-0.471-2.189-0.471h-7.139
		c-0.954,0-1.666,0.152-2.137,0.467c-0.471,0.312-0.706,0.885-0.706,1.715c0,0.832,0.235,1.404,0.706,1.715
		c0.471,0.312,1.183,0.469,2.137,0.469h7.139C138.375,216.217,139.105,216.059,139.601,215.744z"/>
	<path fill="#594F87" d="M142.104,207.447h-16.437v-2.934c0-1.75,0.34-3.066,1.019-3.953c0.681-0.889,1.809-1.33,3.385-1.33
		c0.979,0,1.8,0.174,2.458,0.521c0.66,0.351,1.112,0.858,1.357,1.533l8.218-2.644v2.329l-7.631,2.367v1.761h7.631V207.447
		L142.104,207.447z M132.713,205.1v-0.586c0-0.979-0.207-1.713-0.619-2.201c-0.413-0.488-1.087-0.732-2.022-0.732
		c-0.935,0-1.608,0.244-2.021,0.732c-0.413,0.488-0.619,1.225-0.619,2.201v0.586H132.713z"/>
	<path fill="#594F87" d="M142.27,192.883c0,0.752-0.104,1.404-0.318,1.959c-0.216,0.553-0.507,1.004-0.871,1.352
		c-0.367,0.352-0.835,0.627-1.404,0.838c-0.568,0.205-1.168,0.352-1.797,0.43c-0.63,0.08-1.354,0.119-2.174,0.119h-4.165
		c-4.023,0-6.035-1.598-6.035-4.787c0-0.766,0.115-1.428,0.344-1.99c0.229-0.562,0.564-1.018,1.005-1.365
		c0.441-0.349,0.955-0.611,1.545-0.789c0.592-0.18,1.273-0.281,2.053-0.312c0.107-0.008,0.276-0.01,0.504-0.01v2.348h-0.495
		c-0.385,0.006-0.717,0.025-0.995,0.062c-0.278,0.033-0.552,0.094-0.821,0.184c-0.269,0.088-0.486,0.209-0.654,0.361
		c-0.169,0.152-0.304,0.354-0.402,0.609c-0.104,0.254-0.151,0.555-0.151,0.902c0,0.479,0.087,0.879,0.262,1.205
		c0.176,0.328,0.43,0.578,0.763,0.754c0.333,0.174,0.699,0.297,1.101,0.371c0.4,0.07,0.867,0.107,1.398,0.107h5.282
		c0.393,0,0.744-0.012,1.061-0.037c0.314-0.021,0.636-0.062,0.963-0.123c0.327-0.059,0.61-0.145,0.849-0.258
		c0.238-0.109,0.454-0.254,0.646-0.422c0.193-0.168,0.34-0.379,0.439-0.633c0.101-0.254,0.15-0.545,0.15-0.875
		c0-0.391-0.076-0.73-0.229-1.018c-0.152-0.289-0.352-0.516-0.593-0.684c-0.24-0.168-0.549-0.303-0.922-0.4
		s-0.743-0.162-1.108-0.197c-0.367-0.033-0.786-0.049-1.258-0.049h-0.588v2.348h-1.74v-4.697h8.197v1.764l-1.761,0.588
		C141.628,190.992,142.27,191.775,142.27,192.883z"/>
	<path fill="#594F87" d="M142.104,187.314l-16.437-3.521v-2.348l16.437-3.523v2.35l-4.106,0.879v2.938l4.106,0.881V187.314z
		 M136.234,183.793v-2.348l-7.044,1.174L136.234,183.793z"/>
	<path fill="#594F87" d="M142.104,176.602h-16.437v-1.762l10.163-4.107h-10.163v-2.35h16.437v1.67l-10.933,4.201h10.933V176.602z"/>
	<path fill="#594F87" d="M142.104,165.926h-16.437v-2.348h16.437V165.926z"/>
	<path fill="#594F87" d="M142.27,156.846c0,0.689-0.098,1.299-0.293,1.824c-0.193,0.525-0.467,0.957-0.812,1.293
		c-0.348,0.336-0.776,0.611-1.294,0.822c-0.519,0.211-1.068,0.357-1.655,0.443s-1.25,0.129-1.99,0.129h-4.688
		c-0.739,0-1.403-0.043-1.99-0.129s-1.139-0.232-1.655-0.443c-0.516-0.211-0.946-0.486-1.289-0.822
		c-0.342-0.336-0.609-0.768-0.807-1.293s-0.294-1.135-0.294-1.824c0-0.766,0.113-1.426,0.34-1.98
		c0.226-0.559,0.56-1.004,0.999-1.334c0.44-0.336,0.951-0.586,1.532-0.754s1.26-0.268,2.036-0.299
		c0.114-0.006,0.297-0.01,0.541-0.01v2.35h-0.522c-0.324,0.008-0.601,0.02-0.83,0.035c-0.229,0.021-0.466,0.055-0.711,0.104
		c-0.244,0.049-0.448,0.121-0.61,0.215c-0.16,0.098-0.312,0.215-0.447,0.359c-0.14,0.143-0.238,0.322-0.305,0.545
		c-0.063,0.221-0.096,0.477-0.096,0.771c0,0.379,0.062,0.702,0.183,0.978c0.123,0.271,0.28,0.483,0.475,0.637
		c0.191,0.153,0.451,0.271,0.773,0.354c0.324,0.082,0.643,0.137,0.949,0.16c0.311,0.023,0.689,0.035,1.144,0.035h5.868
		c0.394,0,0.746-0.018,1.064-0.051s0.635-0.102,0.949-0.195c0.313-0.1,0.579-0.227,0.794-0.383c0.214-0.154,0.387-0.361,0.518-0.623
		c0.132-0.26,0.197-0.562,0.197-0.91c0-0.352-0.067-0.648-0.202-0.9c-0.134-0.25-0.306-0.447-0.513-0.592
		c-0.208-0.145-0.477-0.256-0.799-0.338c-0.324-0.084-0.641-0.139-0.944-0.162c-0.306-0.023-0.66-0.035-1.063-0.035h-0.588v-2.35
		h0.588c0.852,0,1.598,0.074,2.237,0.227c0.645,0.148,1.209,0.391,1.701,0.725c0.493,0.332,0.867,0.785,1.124,1.357
		C142.142,155.348,142.27,156.037,142.27,156.846z"/>
</g>
</svg>
