<?xml version="1.0" encoding="utf-8"?>
<!-- Generator: Adobe Illustrator 15.1.0, SVG Export Plug-In . SVG Version: 6.00 Build 0)  -->
<!DOCTYPE svg PUBLIC "-//W3C//DTD SVG 1.1//EN" "http://www.w3.org/Graphics/SVG/1.1/DTD/svg11.dtd">
<svg version="1.1" id="Layer_1" xmlns="http://www.w3.org/2000/svg" xmlns:xlink="http://www.w3.org/1999/xlink" x="0px" y="0px"
	 width="436px" height="348px" viewBox="0 0 436 348" enable-background="new 0 0 436 348" xml:space="preserve">
<path fill="none" stroke="#D4DB68" stroke-width="15" stroke-linecap="round" stroke-linejoin="round" stroke-miterlimit="21" d="
	M326.487,276.567c2.634-8.831,4.718-13.298,20.19-13.828c3.359-0.078-7.739-36.458-10.521-34.486
	c-11.263,6.993-16.348,6.938-24.472-0.203c-6.333-6.696-9.158-10.733-1.881-24.4c1.612-2.945-35.441-11.525-35.125-8.13
	c0.427,13.25-2.164,17.624-12.411,21.092c-8.967,2.135-13.877,2.562-22.072-10.572c-1.747-2.868-27.703,24.932-24.605,26.353
	c11.689,6.256,14.181,10.688,12.06,21.296c-2.634,8.832-4.718,13.299-20.191,13.828c-3.358,0.079,7.74,36.457,10.52,34.487
	c11.263-6.995,16.346-6.939,24.472,0.202l-0.001-0.001c6.333,6.696,9.157,10.736,1.881,24.402
	c-1.612,2.946,35.441,11.523,35.125,8.13c-0.425-13.25,2.165-17.623,12.412-21.091v0.002c8.968-2.136,13.877-2.565,22.072,10.571
	c1.746,2.868,27.701-24.933,24.605-26.354C326.858,291.607,324.364,287.176,326.487,276.567"/>
<circle fill="none" stroke="#D4DB68" stroke-width="15" stroke-linecap="round" stroke-linejoin="round" stroke-miterlimit="21" cx="277.069" cy="265.127" r="21.966"/>
<path fill="none" stroke="#D4DB68" stroke-width="18" stroke-linecap="round" stroke-linejoin="round" stroke-miterlimit="21" d="
	M207.123,103.884c-3.627-14.671-4.403-22.718,17.017-36.345c4.677-2.904-41.283-45.065-43.571-39.965
	c-10.091,19.255-17.321,23.41-34.746,20.085c-14.52-4.19-21.874-7.543-22.968-32.91c-0.175-5.505-59.667,13.218-56.392,17.752
	c11.631,18.365,11.611,26.702,0.021,40.132C55.594,83.114,49.014,87.805,26.5,76.07c-4.853-2.6-18.385,58.284-12.824,57.714
	c21.72-0.892,28.931,3.295,34.766,20.048c3.63,14.669,4.403,22.717-17.017,36.345c-4.678,2.905,41.283,45.062,43.57,39.967
	c10.089-19.259,17.317-23.411,34.743-20.086l-0.002-0.002c14.522,4.19,21.875,7.547,22.971,32.912
	c0.174,5.504,59.665-13.223,56.393-17.752c-11.63-18.366-11.614-26.7-0.021-40.132l0,0.004c10.89-10.481,17.47-15.174,39.983-3.438
	c4.855,2.598,18.385-58.284,12.828-57.714C220.168,124.823,212.956,120.64,207.123,103.884"/>
<circle fill="none" stroke="#D4DB68" stroke-width="18" stroke-linecap="round" stroke-linejoin="round" stroke-miterlimit="21" cx="127.781" cy="128.858" r="36.02"/>
<path fill="none" stroke="#D4DB68" stroke-width="12" stroke-linecap="round" stroke-linejoin="round" stroke-miterlimit="21" d="
	M403.633,181.222c4.813-5.033,7.75-7.322,18.342-2.354c2.284,1.104,7.336-27.184,4.787-26.814
	c-9.979,0.828-13.382-0.958-16.392-8.557c-1.955-6.683-2.465-10.371,7.131-17.058c2.101-1.428-19.872-19.947-20.826-17.555
	c-4.272,9.059-7.52,11.109-15.606,9.917c-6.766-1.649-10.216-3.049-11.209-14.705c-0.186-2.53-27.21,7.238-25.615,9.261
	c5.711,8.228,5.861,12.066,0.784,18.472c-4.809,5.034-7.748,7.321-18.338,2.354c-2.285-1.103-7.337,27.184-4.791,26.815
	c9.983-0.83,13.384,0.957,16.394,8.556l-0.003-0.001c1.956,6.683,2.466,10.372-7.128,17.058c-2.1,1.43,19.872,19.946,20.826,17.557
	c4.274-9.061,7.52-11.11,15.606-9.918l-0.002,0.002c6.769,1.648,10.216,3.049,11.209,14.705c0.188,2.53,27.21-7.24,25.617-9.261
	C398.71,191.467,398.559,187.628,403.633,181.222"/>
<circle fill="none" stroke="#D4DB68" stroke-width="12" stroke-linecap="round" stroke-linejoin="round" stroke-miterlimit="21" cx="374.332" cy="156.525" r="16.596"/>
</svg>
